^C:\USERS\АНДРЕЙ\SOURCE\REPOS\CONSOLEAPPLICATION2\CONSOLEA.ECB67490\X64\DEBUG\CONSOLEAPPLICATION2.OBJ
C:\USERS\Андрей\SOURCE\REPOS\CONSOLEAPPLICATION2\X64\DEBUG\CONSOLEAPPLICATION2.EXE
C:\USERS\Андрей\SOURCE\REPOS\CONSOLEAPPLICATION2\X64\DEBUG\CONSOLEAPPLICATION2.PDB
